-- Merging decision tree log ---
provider#nl.xservices.plugins.FileProvider
INJECTED from /Users/admin/Desktop/Client_Projects/cebs-parents/platforms/android/app/src/main/AndroidManifest.xml:20:9-22:20
	android:grantUriPermissions
		ADDED from /Users/admin/Desktop/Client_Projects/cebs-parents/platforms/android/app/src/main/AndroidManifest.xml:20:100-134
	android:authorities
		INJECTED from /Users/admin/Desktop/Client_Projects/cebs-parents/platforms/android/app/src/main/AndroidManifest.xml
		ADDED from /Users/admin/Desktop/Client_Projects/cebs-parents/platforms/android/app/src/main/AndroidManifest.xml:20:19-74
	android:exported
		ADDED from /Users/admin/Desktop/Client_Projects/cebs-parents/platforms/android/app/src/main/AndroidManifest.xml:20:75-99
	android:name
		ADDED from /Users/admin/Desktop/Client_Projects/cebs-parents/platforms/android/app/src/main/AndroidManifest.xml:20:135-183
activity#com.adobe.phonegap.push.PushHandlerActivity
INJECTED from /Users/admin/Desktop/Client_Projects/cebs-parents/platforms/android/app/src/main/AndroidManifest.xml:23:9-173
	android:exported
		ADDED from /Users/admin/Desktop/Client_Projects/cebs-parents/platforms/android/app/src/main/AndroidManifest.xml:23:19-42
	android:permission
		INJECTED from /Users/admin/Desktop/Client_Projects/cebs-parents/platforms/android/app/src/main/AndroidManifest.xml
		ADDED from /Users/admin/Desktop/Client_Projects/cebs-parents/platforms/android/app/src/main/AndroidManifest.xml:23:102-170
	android:name
		ADDED from /Users/admin/Desktop/Client_Projects/cebs-parents/platforms/android/app/src/main/AndroidManifest.xml:23:43-101
manifest
ADDED from /Users/admin/Desktop/Client_Projects/cebs-parents/platforms/android/app/src/main/AndroidManifest.xml:2:1-50:12
INJECTED from /Users/admin/Desktop/Client_Projects/cebs-parents/platforms/android/app/src/main/AndroidManifest.xml:2:1-50:12
INJECTED from /Users/admin/Desktop/Client_Projects/cebs-parents/platforms/android/app/src/main/AndroidManifest.xml:2:1-50:12
INJECTED from /Users/admin/Desktop/Client_Projects/cebs-parents/platforms/android/app/src/main/AndroidManifest.xml:2:1-50:12
MERGED from [:tbxml-android:] /Users/admin/.gradle/caches/transforms-2/files-2.1/bfb16639cc355f1a2b1c79654cd3c661/AndroidManifest.xml:2:1-11:12
MERGED from [com.google.android.gms:play-services-maps:15.0.1] /Users/admin/.gradle/caches/transforms-2/files-2.1/e8a16d3f2fb0f1af483722c3de3e8ca4/AndroidManifest.xml:17:1-32:12
MERGED from [com.google.android.gms:play-services-location:15.0.1] /Users/admin/.gradle/caches/transforms-2/files-2.1/5627b7af8bf82186383bacd345faff1b/AndroidManifest.xml:2:1-9:12
MERGED from [com.android.support:appcompat-v7:26.1.0] /Users/admin/.gradle/caches/transforms-2/files-2.1/0df9e69580c360e5414a216d5acb0f8c/AndroidManifest.xml:17:1-31:12
MERGED from [com.android.support:support-v13:27.1.1] /Users/admin/.gradle/caches/transforms-2/files-2.1/85ed2300a0cf3b886567f5b2f5f8b8f1/AndroidManifest.xml:17:1-22:12
MERGED from [com.google.firebase:firebase-messaging:15.0.0] /Users/admin/.gradle/caches/transforms-2/files-2.1/04727b964903c6e29f42f1fae9dd0ffe/AndroidManifest.xml:17:1-37:12
MERGED from [com.google.android.gms:play-services-base:15.0.1] /Users/admin/.gradle/caches/transforms-2/files-2.1/2ada9c38e958831e7e616ccd7cd35508/AndroidManifest.xml:17:1-29:12
MERGED from [com.google.android.gms:play-services-places-placereport:15.0.1] /Users/admin/.gradle/caches/transforms-2/files-2.1/e32dc32e12dbd7930aa3005ad60c3970/AndroidManifest.xml:17:1-24:12
MERGED from [com.google.firebase:firebase-analytics-impl:15.0.0] /Users/admin/.gradle/caches/transforms-2/files-2.1/ab7f798f79f7c904066b76927360d974/AndroidManifest.xml:17:1-41:12
MERGED from [com.google.firebase:firebase-iid:15.0.0] /Users/admin/.gradle/caches/transforms-2/files-2.1/3512fb7822baec9a1df5e7ac2ea315d5/AndroidManifest.xml:17:1-59:12
MERGED from [com.google.firebase:firebase-common:15.0.1] /Users/admin/.gradle/caches/transforms-2/files-2.1/e782327e08255642ea5222f01a3fa968/AndroidManifest.xml:2:1-15:12
MERGED from [com.google.android.gms:play-services-tasks:15.0.1] /Users/admin/.gradle/caches/transforms-2/files-2.1/1f0209c5a35ebb1f1f8be99220ba8901/AndroidManifest.xml:2:1-9:12
MERGED from [com.google.android.gms:play-services-ads-identifier:15.0.1] /Users/admin/.gradle/caches/transforms-2/files-2.1/78cf4275410b41bec2e1992f9c465e2e/AndroidManifest.xml:17:1-24:12
MERGED from [com.google.android.gms:play-services-stats:15.0.1] /Users/admin/.gradle/caches/transforms-2/files-2.1/ef5cd8edef8d49a47fed14a43b3982ac/AndroidManifest.xml:2:1-9:12
MERGED from [com.google.android.gms:play-services-basement:15.0.1] /Users/admin/.gradle/caches/transforms-2/files-2.1/56f6a3c1b6cb948566356eaae511a9fc/AndroidManifest.xml:17:1-28:12
MERGED from [com.android.support:support-v4:27.1.1] /Users/admin/.gradle/caches/transforms-2/files-2.1/d98a1f3eafd9f74a0863438e9fea36f6/AndroidManifest.xml:17:1-22:12
MERGED from [com.android.support:animated-vector-drawable:26.1.0] /Users/admin/.gradle/caches/transforms-2/files-2.1/3dab731d6dc31d811fd3dc749ad50f06/AndroidManifest.xml:17:1-28:12
MERGED from [com.android.support:support-fragment:27.1.1] /Users/admin/.gradle/caches/transforms-2/files-2.1/c6343df531dfd297a5cd7ed02dc70cae/AndroidManifest.xml:17:1-22:12
MERGED from [com.android.support:support-core-ui:27.1.1] /Users/admin/.gradle/caches/transforms-2/files-2.1/031366329d60683170dc56a06a9b2558/AndroidManifest.xml:17:1-22:12
MERGED from [com.android.support:support-core-utils:27.1.1] /Users/admin/.gradle/caches/transforms-2/files-2.1/5aa1b169306f9fdd842a64bde20e03aa/AndroidManifest.xml:17:1-22:12
MERGED from [com.android.support:support-vector-drawable:26.1.0] /Users/admin/.gradle/caches/transforms-2/files-2.1/92d95cfc59ddeacd8f9afe238cc947fc/AndroidManifest.xml:17:1-28:12
MERGED from [com.android.support:support-media-compat:27.1.1] /Users/admin/.gradle/caches/transforms-2/files-2.1/a649016690c73aa516246a9b1f4050d6/AndroidManifest.xml:17:1-22:12
MERGED from [com.android.support:support-compat:27.1.1] /Users/admin/.gradle/caches/transforms-2/files-2.1/f59e8a0e513feb2a64968414aa4307c3/AndroidManifest.xml:17:1-22:12
MERGED from [me.leolin:ShortcutBadger:1.1.17] /Users/admin/.gradle/caches/transforms-2/files-2.1/026bb1236edc88a8e77c89f185ddb298/AndroidManifest.xml:2:1-52:12
MERGED from [com.android.support:multidex:1.0.2] /Users/admin/.gradle/caches/transforms-2/files-2.1/da4ba6d677343bddbd16bed75d523b1f/AndroidManifest.xml:17:1-22:12
MERGED from [:CordovaLib] /Users/admin/Desktop/Client_Projects/cebs-parents/platforms/android/CordovaLib/build/intermediates/library_manifest/debug/AndroidManifest.xml:20:1-27:12
MERGED from [com.google.android.gms:play-services-measurement-base:15.0.0] /Users/admin/.gradle/caches/transforms-2/files-2.1/51a7031378e64826a10979d3b72dd37b/AndroidManifest.xml:17:1-24:12
MERGED from [android.arch.lifecycle:runtime:1.1.0] /Users/admin/.gradle/caches/transforms-2/files-2.1/499c54d195b95af616c0e3f7621a8b0e/AndroidManifest.xml:17:1-22:12
MERGED from [android.arch.lifecycle:livedata-core:1.1.0] /Users/admin/.gradle/caches/transforms-2/files-2.1/f6f5da703fd4ea03f61f0e2292773ab5/AndroidManifest.xml:17:1-22:12
MERGED from [android.arch.core:runtime:1.1.0] /Users/admin/.gradle/caches/transforms-2/files-2.1/74d84ffe389ba39ce8b192abf3381a14/AndroidManifest.xml:17:1-22:12
MERGED from [android.arch.lifecycle:viewmodel:1.1.0] /Users/admin/.gradle/caches/transforms-2/files-2.1/638b10a869ccf154da9873a3119492d0/AndroidManifest.xml:17:1-22:12
INJECTED from /Users/admin/Desktop/Client_Projects/cebs-parents/platforms/android/app/src/main/AndroidManifest.xml:2:1-50:12
INJECTED from /Users/admin/Desktop/Client_Projects/cebs-parents/platforms/android/app/src/main/AndroidManifest.xml:2:1-50:12
INJECTED from /Users/admin/Desktop/Client_Projects/cebs-parents/platforms/android/app/src/main/AndroidManifest.xml:2:1-50:12
	package
		ADDED from /Users/admin/Desktop/Client_Projects/cebs-parents/platforms/android/app/src/main/AndroidManifest.xml:2:98-128
		INJECTED from /Users/admin/Desktop/Client_Projects/cebs-parents/platforms/android/app/src/main/AndroidManifest.xml
		INJECTED from /Users/admin/Desktop/Client_Projects/cebs-parents/platforms/android/app/src/main/AndroidManifest.xml
	android:versionName
		ADDED from /Users/admin/Desktop/Client_Projects/cebs-parents/platforms/android/app/src/main/AndroidManifest.xml:2:70-97
		INJECTED from /Users/admin/Desktop/Client_Projects/cebs-parents/platforms/android/app/src/main/AndroidManifest.xml
		INJECTED from /Users/admin/Desktop/Client_Projects/cebs-parents/platforms/android/app/src/main/AndroidManifest.xml
	android:hardwareAccelerated
		ADDED from /Users/admin/Desktop/Client_Projects/cebs-parents/platforms/android/app/src/main/AndroidManifest.xml:2:11-45
	xmlns:android
		ADDED from /Users/admin/Desktop/Client_Projects/cebs-parents/platforms/android/app/src/main/AndroidManifest.xml:2:129-187
	android:versionCode
		ADDED from /Users/admin/Desktop/Client_Projects/cebs-parents/platforms/android/app/src/main/AndroidManifest.xml:2:46-69
		INJECTED from /Users/admin/Desktop/Client_Projects/cebs-parents/platforms/android/app/src/main/AndroidManifest.xml
		INJECTED from /Users/admin/Desktop/Client_Projects/cebs-parents/platforms/android/app/src/main/AndroidManifest.xml
supports-screens
ADDED from /Users/admin/Desktop/Client_Projects/cebs-parents/platforms/android/app/src/main/AndroidManifest.xml:3:5-191
	android:largeScreens
		ADDED from /Users/admin/Desktop/Client_Projects/cebs-parents/platforms/android/app/src/main/AndroidManifest.xml:3:49-76
	android:smallScreens
		ADDED from /Users/admin/Desktop/Client_Projects/cebs-parents/platforms/android/app/src/main/AndroidManifest.xml:3:132-159
	android:normalScreens
		ADDED from /Users/admin/Desktop/Client_Projects/cebs-parents/platforms/android/app/src/main/AndroidManifest.xml:3:77-105
	android:xlargeScreens
		ADDED from /Users/admin/Desktop/Client_Projects/cebs-parents/platforms/android/app/src/main/AndroidManifest.xml:3:160-188
	android:resizeable
		ADDED from /Users/admin/Desktop/Client_Projects/cebs-parents/platforms/android/app/src/main/AndroidManifest.xml:3:106-131
	android:anyDensity
		ADDED from /Users/admin/Desktop/Client_Projects/cebs-parents/platforms/android/app/src/main/AndroidManifest.xml:3:23-48
uses-permission#android.permission.INTERNET
ADDED from /Users/admin/Desktop/Client_Projects/cebs-parents/platforms/android/app/src/main/AndroidManifest.xml:4:5-67
MERGED from [com.google.android.gms:play-services-maps:15.0.1] /Users/admin/.gradle/caches/transforms-2/files-2.1/e8a16d3f2fb0f1af483722c3de3e8ca4/AndroidManifest.xml:24:5-67
MERGED from [com.google.android.gms:play-services-maps:15.0.1] /Users/admin/.gradle/caches/transforms-2/files-2.1/e8a16d3f2fb0f1af483722c3de3e8ca4/AndroidManifest.xml:24:5-67
MERGED from [com.google.firebase:firebase-analytics-impl:15.0.0] /Users/admin/.gradle/caches/transforms-2/files-2.1/ab7f798f79f7c904066b76927360d974/AndroidManifest.xml:23:5-67
MERGED from [com.google.firebase:firebase-analytics-impl:15.0.0] /Users/admin/.gradle/caches/transforms-2/files-2.1/ab7f798f79f7c904066b76927360d974/AndroidManifest.xml:23:5-67
MERGED from [com.google.firebase:firebase-iid:15.0.0] /Users/admin/.gradle/caches/transforms-2/files-2.1/3512fb7822baec9a1df5e7ac2ea315d5/AndroidManifest.xml:23:5-67
MERGED from [com.google.firebase:firebase-iid:15.0.0] /Users/admin/.gradle/caches/transforms-2/files-2.1/3512fb7822baec9a1df5e7ac2ea315d5/AndroidManifest.xml:23:5-67
	android:name
		ADDED from /Users/admin/Desktop/Client_Projects/cebs-parents/platforms/android/app/src/main/AndroidManifest.xml:4:22-64
application
ADDED from /Users/admin/Desktop/Client_Projects/cebs-parents/platforms/android/app/src/main/AndroidManifest.xml:5:5-36:19
MERGED from [com.google.android.gms:play-services-maps:15.0.1] /Users/admin/.gradle/caches/transforms-2/files-2.1/e8a16d3f2fb0f1af483722c3de3e8ca4/AndroidManifest.xml:30:5-20
MERGED from [com.google.android.gms:play-services-maps:15.0.1] /Users/admin/.gradle/caches/transforms-2/files-2.1/e8a16d3f2fb0f1af483722c3de3e8ca4/AndroidManifest.xml:30:5-20
MERGED from [com.google.android.gms:play-services-location:15.0.1] /Users/admin/.gradle/caches/transforms-2/files-2.1/5627b7af8bf82186383bacd345faff1b/AndroidManifest.xml:7:5-20
MERGED from [com.google.android.gms:play-services-location:15.0.1] /Users/admin/.gradle/caches/transforms-2/files-2.1/5627b7af8bf82186383bacd345faff1b/AndroidManifest.xml:7:5-20
MERGED from [com.android.support:appcompat-v7:26.1.0] /Users/admin/.gradle/caches/transforms-2/files-2.1/0df9e69580c360e5414a216d5acb0f8c/AndroidManifest.xml:25:5-29:19
MERGED from [com.android.support:appcompat-v7:26.1.0] /Users/admin/.gradle/caches/transforms-2/files-2.1/0df9e69580c360e5414a216d5acb0f8c/AndroidManifest.xml:25:5-29:19
MERGED from [com.google.firebase:firebase-messaging:15.0.0] /Users/admin/.gradle/caches/transforms-2/files-2.1/04727b964903c6e29f42f1fae9dd0ffe/AndroidManifest.xml:22:5-35:19
MERGED from [com.google.firebase:firebase-messaging:15.0.0] /Users/admin/.gradle/caches/transforms-2/files-2.1/04727b964903c6e29f42f1fae9dd0ffe/AndroidManifest.xml:22:5-35:19
MERGED from [com.google.android.gms:play-services-base:15.0.1] /Users/admin/.gradle/caches/transforms-2/files-2.1/2ada9c38e958831e7e616ccd7cd35508/AndroidManifest.xml:22:5-27:19
MERGED from [com.google.android.gms:play-services-base:15.0.1] /Users/admin/.gradle/caches/transforms-2/files-2.1/2ada9c38e958831e7e616ccd7cd35508/AndroidManifest.xml:22:5-27:19
MERGED from [com.google.android.gms:play-services-places-placereport:15.0.1] /Users/admin/.gradle/caches/transforms-2/files-2.1/e32dc32e12dbd7930aa3005ad60c3970/AndroidManifest.xml:22:5-20
MERGED from [com.google.android.gms:play-services-places-placereport:15.0.1] /Users/admin/.gradle/caches/transforms-2/files-2.1/e32dc32e12dbd7930aa3005ad60c3970/AndroidManifest.xml:22:5-20
MERGED from [com.google.firebase:firebase-analytics-impl:15.0.0] /Users/admin/.gradle/caches/transforms-2/files-2.1/ab7f798f79f7c904066b76927360d974/AndroidManifest.xml:28:5-39:19
MERGED from [com.google.firebase:firebase-analytics-impl:15.0.0] /Users/admin/.gradle/caches/transforms-2/files-2.1/ab7f798f79f7c904066b76927360d974/AndroidManifest.xml:28:5-39:19
MERGED from [com.google.firebase:firebase-iid:15.0.0] /Users/admin/.gradle/caches/transforms-2/files-2.1/3512fb7822baec9a1df5e7ac2ea315d5/AndroidManifest.xml:34:5-57:19
MERGED from [com.google.firebase:firebase-iid:15.0.0] /Users/admin/.gradle/caches/transforms-2/files-2.1/3512fb7822baec9a1df5e7ac2ea315d5/AndroidManifest.xml:34:5-57:19
MERGED from [com.google.firebase:firebase-common:15.0.1] /Users/admin/.gradle/caches/transforms-2/files-2.1/e782327e08255642ea5222f01a3fa968/AndroidManifest.xml:7:5-13:19
MERGED from [com.google.firebase:firebase-common:15.0.1] /Users/admin/.gradle/caches/transforms-2/files-2.1/e782327e08255642ea5222f01a3fa968/AndroidManifest.xml:7:5-13:19
MERGED from [com.google.android.gms:play-services-tasks:15.0.1] /Users/admin/.gradle/caches/transforms-2/files-2.1/1f0209c5a35ebb1f1f8be99220ba8901/AndroidManifest.xml:7:5-20
MERGED from [com.google.android.gms:play-services-tasks:15.0.1] /Users/admin/.gradle/caches/transforms-2/files-2.1/1f0209c5a35ebb1f1f8be99220ba8901/AndroidManifest.xml:7:5-20
MERGED from [com.google.android.gms:play-services-ads-identifier:15.0.1] /Users/admin/.gradle/caches/transforms-2/files-2.1/78cf4275410b41bec2e1992f9c465e2e/AndroidManifest.xml:22:5-20
MERGED from [com.google.android.gms:play-services-ads-identifier:15.0.1] /Users/admin/.gradle/caches/transforms-2/files-2.1/78cf4275410b41bec2e1992f9c465e2e/AndroidManifest.xml:22:5-20
MERGED from [com.google.android.gms:play-services-stats:15.0.1] /Users/admin/.gradle/caches/transforms-2/files-2.1/ef5cd8edef8d49a47fed14a43b3982ac/AndroidManifest.xml:7:5-20
MERGED from [com.google.android.gms:play-services-stats:15.0.1] /Users/admin/.gradle/caches/transforms-2/files-2.1/ef5cd8edef8d49a47fed14a43b3982ac/AndroidManifest.xml:7:5-20
MERGED from [com.google.android.gms:play-services-basement:15.0.1] /Users/admin/.gradle/caches/transforms-2/files-2.1/56f6a3c1b6cb948566356eaae511a9fc/AndroidManifest.xml:22:5-26:19
MERGED from [com.google.android.gms:play-services-basement:15.0.1] /Users/admin/.gradle/caches/transforms-2/files-2.1/56f6a3c1b6cb948566356eaae511a9fc/AndroidManifest.xml:22:5-26:19
MERGED from [com.android.support:animated-vector-drawable:26.1.0] /Users/admin/.gradle/caches/transforms-2/files-2.1/3dab731d6dc31d811fd3dc749ad50f06/AndroidManifest.xml:22:5-26:19
MERGED from [com.android.support:animated-vector-drawable:26.1.0] /Users/admin/.gradle/caches/transforms-2/files-2.1/3dab731d6dc31d811fd3dc749ad50f06/AndroidManifest.xml:22:5-26:19
MERGED from [com.android.support:support-vector-drawable:26.1.0] /Users/admin/.gradle/caches/transforms-2/files-2.1/92d95cfc59ddeacd8f9afe238cc947fc/AndroidManifest.xml:22:5-26:19
MERGED from [com.android.support:support-vector-drawable:26.1.0] /Users/admin/.gradle/caches/transforms-2/files-2.1/92d95cfc59ddeacd8f9afe238cc947fc/AndroidManifest.xml:22:5-26:19
MERGED from [com.google.android.gms:play-services-measurement-base:15.0.0] /Users/admin/.gradle/caches/transforms-2/files-2.1/51a7031378e64826a10979d3b72dd37b/AndroidManifest.xml:22:5-20
MERGED from [com.google.android.gms:play-services-measurement-base:15.0.0] /Users/admin/.gradle/caches/transforms-2/files-2.1/51a7031378e64826a10979d3b72dd37b/AndroidManifest.xml:22:5-20
	android:supportsRtl
		ADDED from /Users/admin/Desktop/Client_Projects/cebs-parents/platforms/android/app/src/main/AndroidManifest.xml:5:114-140
	android:label
		ADDED from /Users/admin/Desktop/Client_Projects/cebs-parents/platforms/android/app/src/main/AndroidManifest.xml:5:81-113
	android:hardwareAccelerated
		ADDED from /Users/admin/Desktop/Client_Projects/cebs-parents/platforms/android/app/src/main/AndroidManifest.xml:5:18-52
	android:icon
		ADDED from /Users/admin/Desktop/Client_Projects/cebs-parents/platforms/android/app/src/main/AndroidManifest.xml:5:53-80
	android:usesCleartextTraffic
		ADDED from /Users/admin/Desktop/Client_Projects/cebs-parents/platforms/android/app/src/main/AndroidManifest.xml:5:141-176
uses-library#org.apache.http.legacy
ADDED from /Users/admin/Desktop/Client_Projects/cebs-parents/platforms/android/app/src/main/AndroidManifest.xml:6:9-88
	android:required
		ADDED from /Users/admin/Desktop/Client_Projects/cebs-parents/platforms/android/app/src/main/AndroidManifest.xml:6:61-85
	android:name
		ADDED from /Users/admin/Desktop/Client_Projects/cebs-parents/platforms/android/app/src/main/AndroidManifest.xml:6:23-60
activity#io.cebsparents.ionic.MainActivity
ADDED from /Users/admin/Desktop/Client_Projects/cebs-parents/platforms/android/app/src/main/AndroidManifest.xml:7:9-12:20
	android:screenOrientation
		ADDED from /Users/admin/Desktop/Client_Projects/cebs-parents/platforms/android/app/src/main/AndroidManifest.xml:7:194-230
	android:label
		ADDED from /Users/admin/Desktop/Client_Projects/cebs-parents/platforms/android/app/src/main/AndroidManifest.xml:7:97-134
	android:launchMode
		ADDED from /Users/admin/Desktop/Client_Projects/cebs-parents/platforms/android/app/src/main/AndroidManifest.xml:7:135-165
	android:windowSoftInputMode
		ADDED from /Users/admin/Desktop/Client_Projects/cebs-parents/platforms/android/app/src/main/AndroidManifest.xml:7:294-336
	android:configChanges
		ADDED from /Users/admin/Desktop/Client_Projects/cebs-parents/platforms/android/app/src/main/AndroidManifest.xml:7:19-96
	android:theme
		ADDED from /Users/admin/Desktop/Client_Projects/cebs-parents/platforms/android/app/src/main/AndroidManifest.xml:7:231-293
	android:name
		ADDED from /Users/admin/Desktop/Client_Projects/cebs-parents/platforms/android/app/src/main/AndroidManifest.xml:7:166-193
intent-filter#action:name:android.intent.action.MAIN+category:name:android.intent.category.LAUNCHER
ADDED from /Users/admin/Desktop/Client_Projects/cebs-parents/platforms/android/app/src/main/AndroidManifest.xml:8:13-11:29
	android:label
		ADDED from /Users/admin/Desktop/Client_Projects/cebs-parents/platforms/android/app/src/main/AndroidManifest.xml:8:28-65
action#android.intent.action.MAIN
ADDED from /Users/admin/Desktop/Client_Projects/cebs-parents/platforms/android/app/src/main/AndroidManifest.xml:9:17-69
	android:name
		ADDED from /Users/admin/Desktop/Client_Projects/cebs-parents/platforms/android/app/src/main/AndroidManifest.xml:9:25-66
category#android.intent.category.LAUNCHER
ADDED from /Users/admin/Desktop/Client_Projects/cebs-parents/platforms/android/app/src/main/AndroidManifest.xml:10:17-77
	android:name
		ADDED from /Users/admin/Desktop/Client_Projects/cebs-parents/platforms/android/app/src/main/AndroidManifest.xml:10:27-74
meta-data#com.google.android.geo.API_KEY
ADDED from /Users/admin/Desktop/Client_Projects/cebs-parents/platforms/android/app/src/main/AndroidManifest.xml:13:9-124
	android:value
		ADDED from /Users/admin/Desktop/Client_Projects/cebs-parents/platforms/android/app/src/main/AndroidManifest.xml:13:66-121
	android:name
		ADDED from /Users/admin/Desktop/Client_Projects/cebs-parents/platforms/android/app/src/main/AndroidManifest.xml:13:20-65
meta-data#com.google.android.gms.version
ADDED from /Users/admin/Desktop/Client_Projects/cebs-parents/platforms/android/app/src/main/AndroidManifest.xml:14:9-122
MERGED from [com.google.android.gms:play-services-basement:15.0.1] /Users/admin/.gradle/caches/transforms-2/files-2.1/56f6a3c1b6cb948566356eaae511a9fc/AndroidManifest.xml:23:9-25:69
MERGED from [com.google.android.gms:play-services-basement:15.0.1] /Users/admin/.gradle/caches/transforms-2/files-2.1/56f6a3c1b6cb948566356eaae511a9fc/AndroidManifest.xml:23:9-25:69
	android:value
		ADDED from /Users/admin/Desktop/Client_Projects/cebs-parents/platforms/android/app/src/main/AndroidManifest.xml:14:66-119
	android:name
		ADDED from /Users/admin/Desktop/Client_Projects/cebs-parents/platforms/android/app/src/main/AndroidManifest.xml:14:20-65
receiver#nl.xservices.plugins.ShareChooserPendingIntent
ADDED from /Users/admin/Desktop/Client_Projects/cebs-parents/platforms/android/app/src/main/AndroidManifest.xml:15:9-19:20
	android:enabled
		ADDED from /Users/admin/Desktop/Client_Projects/cebs-parents/platforms/android/app/src/main/AndroidManifest.xml:15:19-41
	android:name
		ADDED from /Users/admin/Desktop/Client_Projects/cebs-parents/platforms/android/app/src/main/AndroidManifest.xml:15:42-103
intent-filter#action:name:android.intent.action.SEND
ADDED from /Users/admin/Desktop/Client_Projects/cebs-parents/platforms/android/app/src/main/AndroidManifest.xml:16:13-18:29
action#android.intent.action.SEND
ADDED from /Users/admin/Desktop/Client_Projects/cebs-parents/platforms/android/app/src/main/AndroidManifest.xml:17:17-69
	android:name
		ADDED from /Users/admin/Desktop/Client_Projects/cebs-parents/platforms/android/app/src/main/AndroidManifest.xml:17:25-66
receiver#com.adobe.phonegap.push.BackgroundActionButtonHandler
ADDED from /Users/admin/Desktop/Client_Projects/cebs-parents/platforms/android/app/src/main/AndroidManifest.xml:24:9-90
	android:name
		ADDED from /Users/admin/Desktop/Client_Projects/cebs-parents/platforms/android/app/src/main/AndroidManifest.xml:24:19-87
receiver#com.adobe.phonegap.push.PushDismissedHandler
ADDED from /Users/admin/Desktop/Client_Projects/cebs-parents/platforms/android/app/src/main/AndroidManifest.xml:25:9-81
	android:name
		ADDED from /Users/admin/Desktop/Client_Projects/cebs-parents/platforms/android/app/src/main/AndroidManifest.xml:25:19-78
service#com.adobe.phonegap.push.FCMService
ADDED from /Users/admin/Desktop/Client_Projects/cebs-parents/platforms/android/app/src/main/AndroidManifest.xml:26:9-30:19
	android:name
		ADDED from /Users/admin/Desktop/Client_Projects/cebs-parents/platforms/android/app/src/main/AndroidManifest.xml:26:18-67
intent-filter#action:name:com.google.firebase.MESSAGING_EVENT
ADDED from /Users/admin/Desktop/Client_Projects/cebs-parents/platforms/android/app/src/main/AndroidManifest.xml:27:13-29:29
action#com.google.firebase.MESSAGING_EVENT
ADDED from /Users/admin/Desktop/Client_Projects/cebs-parents/platforms/android/app/src/main/AndroidManifest.xml:28:17-78
	android:name
		ADDED from /Users/admin/Desktop/Client_Projects/cebs-parents/platforms/android/app/src/main/AndroidManifest.xml:28:25-75
service#com.adobe.phonegap.push.PushInstanceIDListenerService
ADDED from /Users/admin/Desktop/Client_Projects/cebs-parents/platforms/android/app/src/main/AndroidManifest.xml:31:9-35:19
	android:name
		ADDED from /Users/admin/Desktop/Client_Projects/cebs-parents/platforms/android/app/src/main/AndroidManifest.xml:31:18-86
intent-filter#action:name:com.google.firebase.INSTANCE_ID_EVENT
ADDED from /Users/admin/Desktop/Client_Projects/cebs-parents/platforms/android/app/src/main/AndroidManifest.xml:32:13-34:29
action#com.google.firebase.INSTANCE_ID_EVENT
ADDED from /Users/admin/Desktop/Client_Projects/cebs-parents/platforms/android/app/src/main/AndroidManifest.xml:33:17-80
	android:name
		ADDED from /Users/admin/Desktop/Client_Projects/cebs-parents/platforms/android/app/src/main/AndroidManifest.xml:33:25-77
uses-sdk
ADDED from /Users/admin/Desktop/Client_Projects/cebs-parents/platforms/android/app/src/main/AndroidManifest.xml:37:5-44
INJECTED from /Users/admin/Desktop/Client_Projects/cebs-parents/platforms/android/app/src/main/AndroidManifest.xml:37:5-44
INJECTED from /Users/admin/Desktop/Client_Projects/cebs-parents/platforms/android/app/src/main/AndroidManifest.xml:37:5-44
MERGED from [:tbxml-android:] /Users/admin/.gradle/caches/transforms-2/files-2.1/bfb16639cc355f1a2b1c79654cd3c661/AndroidManifest.xml:7:5-9:41
MERGED from [:tbxml-android:] /Users/admin/.gradle/caches/transforms-2/files-2.1/bfb16639cc355f1a2b1c79654cd3c661/AndroidManifest.xml:7:5-9:41
MERGED from [com.google.android.gms:play-services-maps:15.0.1] /Users/admin/.gradle/caches/transforms-2/files-2.1/e8a16d3f2fb0f1af483722c3de3e8ca4/AndroidManifest.xml:20:5-44
MERGED from [com.google.android.gms:play-services-maps:15.0.1] /Users/admin/.gradle/caches/transforms-2/files-2.1/e8a16d3f2fb0f1af483722c3de3e8ca4/AndroidManifest.xml:20:5-44
MERGED from [com.google.android.gms:play-services-location:15.0.1] /Users/admin/.gradle/caches/transforms-2/files-2.1/5627b7af8bf82186383bacd345faff1b/AndroidManifest.xml:5:5-44
MERGED from [com.google.android.gms:play-services-location:15.0.1] /Users/admin/.gradle/caches/transforms-2/files-2.1/5627b7af8bf82186383bacd345faff1b/AndroidManifest.xml:5:5-44
MERGED from [com.android.support:appcompat-v7:26.1.0] /Users/admin/.gradle/caches/transforms-2/files-2.1/0df9e69580c360e5414a216d5acb0f8c/AndroidManifest.xml:21:5-23:78
MERGED from [com.android.support:appcompat-v7:26.1.0] /Users/admin/.gradle/caches/transforms-2/files-2.1/0df9e69580c360e5414a216d5acb0f8c/AndroidManifest.xml:21:5-23:78
MERGED from [com.android.support:support-v13:27.1.1] /Users/admin/.gradle/caches/transforms-2/files-2.1/85ed2300a0cf3b886567f5b2f5f8b8f1/AndroidManifest.xml:20:5-44
MERGED from [com.android.support:support-v13:27.1.1] /Users/admin/.gradle/caches/transforms-2/files-2.1/85ed2300a0cf3b886567f5b2f5f8b8f1/AndroidManifest.xml:20:5-44
MERGED from [com.google.firebase:firebase-messaging:15.0.0] /Users/admin/.gradle/caches/transforms-2/files-2.1/04727b964903c6e29f42f1fae9dd0ffe/AndroidManifest.xml:20:5-44
MERGED from [com.google.firebase:firebase-messaging:15.0.0] /Users/admin/.gradle/caches/transforms-2/files-2.1/04727b964903c6e29f42f1fae9dd0ffe/AndroidManifest.xml:20:5-44
MERGED from [com.google.android.gms:play-services-base:15.0.1] /Users/admin/.gradle/caches/transforms-2/files-2.1/2ada9c38e958831e7e616ccd7cd35508/AndroidManifest.xml:20:5-44
MERGED from [com.google.android.gms:play-services-base:15.0.1] /Users/admin/.gradle/caches/transforms-2/files-2.1/2ada9c38e958831e7e616ccd7cd35508/AndroidManifest.xml:20:5-44
MERGED from [com.google.android.gms:play-services-places-placereport:15.0.1] /Users/admin/.gradle/caches/transforms-2/files-2.1/e32dc32e12dbd7930aa3005ad60c3970/AndroidManifest.xml:20:5-44
MERGED from [com.google.android.gms:play-services-places-placereport:15.0.1] /Users/admin/.gradle/caches/transforms-2/files-2.1/e32dc32e12dbd7930aa3005ad60c3970/AndroidManifest.xml:20:5-44
MERGED from [com.google.firebase:firebase-analytics-impl:15.0.0] /Users/admin/.gradle/caches/transforms-2/files-2.1/ab7f798f79f7c904066b76927360d974/AndroidManifest.xml:20:5-44
MERGED from [com.google.firebase:firebase-analytics-impl:15.0.0] /Users/admin/.gradle/caches/transforms-2/files-2.1/ab7f798f79f7c904066b76927360d974/AndroidManifest.xml:20:5-44
MERGED from [com.google.firebase:firebase-iid:15.0.0] /Users/admin/.gradle/caches/transforms-2/files-2.1/3512fb7822baec9a1df5e7ac2ea315d5/AndroidManifest.xml:20:5-44
MERGED from [com.google.firebase:firebase-iid:15.0.0] /Users/admin/.gradle/caches/transforms-2/files-2.1/3512fb7822baec9a1df5e7ac2ea315d5/AndroidManifest.xml:20:5-44
MERGED from [com.google.firebase:firebase-common:15.0.1] /Users/admin/.gradle/caches/transforms-2/files-2.1/e782327e08255642ea5222f01a3fa968/AndroidManifest.xml:5:5-44
MERGED from [com.google.firebase:firebase-common:15.0.1] /Users/admin/.gradle/caches/transforms-2/files-2.1/e782327e08255642ea5222f01a3fa968/AndroidManifest.xml:5:5-44
MERGED from [com.google.android.gms:play-services-tasks:15.0.1] /Users/admin/.gradle/caches/transforms-2/files-2.1/1f0209c5a35ebb1f1f8be99220ba8901/AndroidManifest.xml:5:5-44
MERGED from [com.google.android.gms:play-services-tasks:15.0.1] /Users/admin/.gradle/caches/transforms-2/files-2.1/1f0209c5a35ebb1f1f8be99220ba8901/AndroidManifest.xml:5:5-44
MERGED from [com.google.android.gms:play-services-ads-identifier:15.0.1] /Users/admin/.gradle/caches/transforms-2/files-2.1/78cf4275410b41bec2e1992f9c465e2e/AndroidManifest.xml:20:5-44
MERGED from [com.google.android.gms:play-services-ads-identifier:15.0.1] /Users/admin/.gradle/caches/transforms-2/files-2.1/78cf4275410b41bec2e1992f9c465e2e/AndroidManifest.xml:20:5-44
MERGED from [com.google.android.gms:play-services-stats:15.0.1] /Users/admin/.gradle/caches/transforms-2/files-2.1/ef5cd8edef8d49a47fed14a43b3982ac/AndroidManifest.xml:5:5-44
MERGED from [com.google.android.gms:play-services-stats:15.0.1] /Users/admin/.gradle/caches/transforms-2/files-2.1/ef5cd8edef8d49a47fed14a43b3982ac/AndroidManifest.xml:5:5-44
MERGED from [com.google.android.gms:play-services-basement:15.0.1] /Users/admin/.gradle/caches/transforms-2/files-2.1/56f6a3c1b6cb948566356eaae511a9fc/AndroidManifest.xml:20:5-44
MERGED from [com.google.android.gms:play-services-basement:15.0.1] /Users/admin/.gradle/caches/transforms-2/files-2.1/56f6a3c1b6cb948566356eaae511a9fc/AndroidManifest.xml:20:5-44
MERGED from [com.android.support:support-v4:27.1.1] /Users/admin/.gradle/caches/transforms-2/files-2.1/d98a1f3eafd9f74a0863438e9fea36f6/AndroidManifest.xml:20:5-44
MERGED from [com.android.support:support-v4:27.1.1] /Users/admin/.gradle/caches/transforms-2/files-2.1/d98a1f3eafd9f74a0863438e9fea36f6/AndroidManifest.xml:20:5-44
MERGED from [com.android.support:animated-vector-drawable:26.1.0] /Users/admin/.gradle/caches/transforms-2/files-2.1/3dab731d6dc31d811fd3dc749ad50f06/AndroidManifest.xml:20:5-44
MERGED from [com.android.support:animated-vector-drawable:26.1.0] /Users/admin/.gradle/caches/transforms-2/files-2.1/3dab731d6dc31d811fd3dc749ad50f06/AndroidManifest.xml:20:5-44
MERGED from [com.android.support:support-fragment:27.1.1] /Users/admin/.gradle/caches/transforms-2/files-2.1/c6343df531dfd297a5cd7ed02dc70cae/AndroidManifest.xml:20:5-44
MERGED from [com.android.support:support-fragment:27.1.1] /Users/admin/.gradle/caches/transforms-2/files-2.1/c6343df531dfd297a5cd7ed02dc70cae/AndroidManifest.xml:20:5-44
MERGED from [com.android.support:support-core-ui:27.1.1] /Users/admin/.gradle/caches/transforms-2/files-2.1/031366329d60683170dc56a06a9b2558/AndroidManifest.xml:20:5-44
MERGED from [com.android.support:support-core-ui:27.1.1] /Users/admin/.gradle/caches/transforms-2/files-2.1/031366329d60683170dc56a06a9b2558/AndroidManifest.xml:20:5-44
MERGED from [com.android.support:support-core-utils:27.1.1] /Users/admin/.gradle/caches/transforms-2/files-2.1/5aa1b169306f9fdd842a64bde20e03aa/AndroidManifest.xml:20:5-44
MERGED from [com.android.support:support-core-utils:27.1.1] /Users/admin/.gradle/caches/transforms-2/files-2.1/5aa1b169306f9fdd842a64bde20e03aa/AndroidManifest.xml:20:5-44
MERGED from [com.android.support:support-vector-drawable:26.1.0] /Users/admin/.gradle/caches/transforms-2/files-2.1/92d95cfc59ddeacd8f9afe238cc947fc/AndroidManifest.xml:20:5-44
MERGED from [com.android.support:support-vector-drawable:26.1.0] /Users/admin/.gradle/caches/transforms-2/files-2.1/92d95cfc59ddeacd8f9afe238cc947fc/AndroidManifest.xml:20:5-44
MERGED from [com.android.support:support-media-compat:27.1.1] /Users/admin/.gradle/caches/transforms-2/files-2.1/a649016690c73aa516246a9b1f4050d6/AndroidManifest.xml:20:5-44
MERGED from [com.android.support:support-media-compat:27.1.1] /Users/admin/.gradle/caches/transforms-2/files-2.1/a649016690c73aa516246a9b1f4050d6/AndroidManifest.xml:20:5-44
MERGED from [com.android.support:support-compat:27.1.1] /Users/admin/.gradle/caches/transforms-2/files-2.1/f59e8a0e513feb2a64968414aa4307c3/AndroidManifest.xml:20:5-44
MERGED from [com.android.support:support-compat:27.1.1] /Users/admin/.gradle/caches/transforms-2/files-2.1/f59e8a0e513feb2a64968414aa4307c3/AndroidManifest.xml:20:5-44
MERGED from [me.leolin:ShortcutBadger:1.1.17] /Users/admin/.gradle/caches/transforms-2/files-2.1/026bb1236edc88a8e77c89f185ddb298/AndroidManifest.xml:7:5-9:41
MERGED from [me.leolin:ShortcutBadger:1.1.17] /Users/admin/.gradle/caches/transforms-2/files-2.1/026bb1236edc88a8e77c89f185ddb298/AndroidManifest.xml:7:5-9:41
MERGED from [com.android.support:multidex:1.0.2] /Users/admin/.gradle/caches/transforms-2/files-2.1/da4ba6d677343bddbd16bed75d523b1f/AndroidManifest.xml:20:5-43
MERGED from [com.android.support:multidex:1.0.2] /Users/admin/.gradle/caches/transforms-2/files-2.1/da4ba6d677343bddbd16bed75d523b1f/AndroidManifest.xml:20:5-43
MERGED from [:CordovaLib] /Users/admin/Desktop/Client_Projects/cebs-parents/platforms/android/CordovaLib/build/intermediates/library_manifest/debug/AndroidManifest.xml:25:5-44
MERGED from [:CordovaLib] /Users/admin/Desktop/Client_Projects/cebs-parents/platforms/android/CordovaLib/build/intermediates/library_manifest/debug/AndroidManifest.xml:25:5-44
MERGED from [com.google.android.gms:play-services-measurement-base:15.0.0] /Users/admin/.gradle/caches/transforms-2/files-2.1/51a7031378e64826a10979d3b72dd37b/AndroidManifest.xml:20:5-44
MERGED from [com.google.android.gms:play-services-measurement-base:15.0.0] /Users/admin/.gradle/caches/transforms-2/files-2.1/51a7031378e64826a10979d3b72dd37b/AndroidManifest.xml:20:5-44
MERGED from [android.arch.lifecycle:runtime:1.1.0] /Users/admin/.gradle/caches/transforms-2/files-2.1/499c54d195b95af616c0e3f7621a8b0e/AndroidManifest.xml:20:5-44
MERGED from [android.arch.lifecycle:runtime:1.1.0] /Users/admin/.gradle/caches/transforms-2/files-2.1/499c54d195b95af616c0e3f7621a8b0e/AndroidManifest.xml:20:5-44
MERGED from [android.arch.lifecycle:livedata-core:1.1.0] /Users/admin/.gradle/caches/transforms-2/files-2.1/f6f5da703fd4ea03f61f0e2292773ab5/AndroidManifest.xml:20:5-44
MERGED from [android.arch.lifecycle:livedata-core:1.1.0] /Users/admin/.gradle/caches/transforms-2/files-2.1/f6f5da703fd4ea03f61f0e2292773ab5/AndroidManifest.xml:20:5-44
MERGED from [android.arch.core:runtime:1.1.0] /Users/admin/.gradle/caches/transforms-2/files-2.1/74d84ffe389ba39ce8b192abf3381a14/AndroidManifest.xml:20:5-44
MERGED from [android.arch.core:runtime:1.1.0] /Users/admin/.gradle/caches/transforms-2/files-2.1/74d84ffe389ba39ce8b192abf3381a14/AndroidManifest.xml:20:5-44
MERGED from [android.arch.lifecycle:viewmodel:1.1.0] /Users/admin/.gradle/caches/transforms-2/files-2.1/638b10a869ccf154da9873a3119492d0/AndroidManifest.xml:20:5-44
MERGED from [android.arch.lifecycle:viewmodel:1.1.0] /Users/admin/.gradle/caches/transforms-2/files-2.1/638b10a869ccf154da9873a3119492d0/AndroidManifest.xml:20:5-44
INJECTED from /Users/admin/Desktop/Client_Projects/cebs-parents/platforms/android/app/src/main/AndroidManifest.xml:37:5-44
INJECTED from /Users/admin/Desktop/Client_Projects/cebs-parents/platforms/android/app/src/main/AndroidManifest.xml:37:5-44
	tools:overrideLibrary
		ADDED from [com.android.support:appcompat-v7:26.1.0] /Users/admin/.gradle/caches/transforms-2/files-2.1/0df9e69580c360e5414a216d5acb0f8c/AndroidManifest.xml:23:9-75
	android:targetSdkVersion
		INJECTED from /Users/admin/Desktop/Client_Projects/cebs-parents/platforms/android/app/src/main/AndroidManifest.xml
		ADDED from /Users/admin/Desktop/Client_Projects/cebs-parents/platforms/android/app/src/main/AndroidManifest.xml:37:5-44
		INJECTED from /Users/admin/Desktop/Client_Projects/cebs-parents/platforms/android/app/src/main/AndroidManifest.xml
	android:minSdkVersion
		ADDED from /Users/admin/Desktop/Client_Projects/cebs-parents/platforms/android/app/src/main/AndroidManifest.xml:37:15-41
		INJECTED from /Users/admin/Desktop/Client_Projects/cebs-parents/platforms/android/app/src/main/AndroidManifest.xml
		INJECTED from /Users/admin/Desktop/Client_Projects/cebs-parents/platforms/android/app/src/main/AndroidManifest.xml
uses-permission#android.permission.WRITE_EXTERNAL_STORAGE
ADDED from /Users/admin/Desktop/Client_Projects/cebs-parents/platforms/android/app/src/main/AndroidManifest.xml:38:5-81
	android:name
		ADDED from /Users/admin/Desktop/Client_Projects/cebs-parents/platforms/android/app/src/main/AndroidManifest.xml:38:22-78
uses-permission#android.permission.ACCESS_COARSE_LOCATION
ADDED from /Users/admin/Desktop/Client_Projects/cebs-parents/platforms/android/app/src/main/AndroidManifest.xml:39:5-81
	android:name
		ADDED from /Users/admin/Desktop/Client_Projects/cebs-parents/platforms/android/app/src/main/AndroidManifest.xml:39:22-78
uses-permission#android.permission.ACCESS_FINE_LOCATION
ADDED from /Users/admin/Desktop/Client_Projects/cebs-parents/platforms/android/app/src/main/AndroidManifest.xml:40:5-79
	android:name
		ADDED from /Users/admin/Desktop/Client_Projects/cebs-parents/platforms/android/app/src/main/AndroidManifest.xml:40:22-76
uses-feature#android.hardware.location.gps
ADDED from /Users/admin/Desktop/Client_Projects/cebs-parents/platforms/android/app/src/main/AndroidManifest.xml:41:5-66
	android:name
		ADDED from /Users/admin/Desktop/Client_Projects/cebs-parents/platforms/android/app/src/main/AndroidManifest.xml:41:19-63
uses-permission#android.permission.ACCESS_NETWORK_STATE
ADDED from /Users/admin/Desktop/Client_Projects/cebs-parents/platforms/android/app/src/main/AndroidManifest.xml:42:5-79
MERGED from [com.google.android.gms:play-services-maps:15.0.1] /Users/admin/.gradle/caches/transforms-2/files-2.1/e8a16d3f2fb0f1af483722c3de3e8ca4/AndroidManifest.xml:23:5-79
MERGED from [com.google.android.gms:play-services-maps:15.0.1] /Users/admin/.gradle/caches/transforms-2/files-2.1/e8a16d3f2fb0f1af483722c3de3e8ca4/AndroidManifest.xml:23:5-79
MERGED from [com.google.firebase:firebase-analytics-impl:15.0.0] /Users/admin/.gradle/caches/transforms-2/files-2.1/ab7f798f79f7c904066b76927360d974/AndroidManifest.xml:24:5-79
MERGED from [com.google.firebase:firebase-analytics-impl:15.0.0] /Users/admin/.gradle/caches/transforms-2/files-2.1/ab7f798f79f7c904066b76927360d974/AndroidManifest.xml:24:5-79
MERGED from [com.google.firebase:firebase-iid:15.0.0] /Users/admin/.gradle/caches/transforms-2/files-2.1/3512fb7822baec9a1df5e7ac2ea315d5/AndroidManifest.xml:22:5-79
MERGED from [com.google.firebase:firebase-iid:15.0.0] /Users/admin/.gradle/caches/transforms-2/files-2.1/3512fb7822baec9a1df5e7ac2ea315d5/AndroidManifest.xml:22:5-79
	android:name
		ADDED from /Users/admin/Desktop/Client_Projects/cebs-parents/platforms/android/app/src/main/AndroidManifest.xml:42:22-76
uses-feature#0x00020000
ADDED from /Users/admin/Desktop/Client_Projects/cebs-parents/platforms/android/app/src/main/AndroidManifest.xml:43:5-78
MERGED from [com.google.android.gms:play-services-maps:15.0.1] /Users/admin/.gradle/caches/transforms-2/files-2.1/e8a16d3f2fb0f1af483722c3de3e8ca4/AndroidManifest.xml:26:5-28:35
MERGED from [com.google.android.gms:play-services-maps:15.0.1] /Users/admin/.gradle/caches/transforms-2/files-2.1/e8a16d3f2fb0f1af483722c3de3e8ca4/AndroidManifest.xml:26:5-28:35
	android:glEsVersion
		ADDED from /Users/admin/Desktop/Client_Projects/cebs-parents/platforms/android/app/src/main/AndroidManifest.xml:43:19-51
	android:required
		ADDED from /Users/admin/Desktop/Client_Projects/cebs-parents/platforms/android/app/src/main/AndroidManifest.xml:43:52-75
uses-feature#android.hardware.location
ADDED from /Users/admin/Desktop/Client_Projects/cebs-parents/platforms/android/app/src/main/AndroidManifest.xml:44:5-62
	android:name
		ADDED from /Users/admin/Desktop/Client_Projects/cebs-parents/platforms/android/app/src/main/AndroidManifest.xml:44:19-59
uses-permission#android.permission.BLUETOOTH
ADDED from /Users/admin/Desktop/Client_Projects/cebs-parents/platforms/android/app/src/main/AndroidManifest.xml:45:5-68
	android:name
		ADDED from /Users/admin/Desktop/Client_Projects/cebs-parents/platforms/android/app/src/main/AndroidManifest.xml:45:22-65
uses-permission#android.permission.CALL_PHONE
ADDED from /Users/admin/Desktop/Client_Projects/cebs-parents/platforms/android/app/src/main/AndroidManifest.xml:46:5-69
	android:name
		ADDED from /Users/admin/Desktop/Client_Projects/cebs-parents/platforms/android/app/src/main/AndroidManifest.xml:46:22-66
uses-feature#android.hardware.telephony
ADDED from /Users/admin/Desktop/Client_Projects/cebs-parents/platforms/android/app/src/main/AndroidManifest.xml:47:5-88
	android:required
		ADDED from /Users/admin/Desktop/Client_Projects/cebs-parents/platforms/android/app/src/main/AndroidManifest.xml:47:61-85
	android:name
		ADDED from /Users/admin/Desktop/Client_Projects/cebs-parents/platforms/android/app/src/main/AndroidManifest.xml:47:19-60
uses-permission#android.permission.WAKE_LOCK
ADDED from /Users/admin/Desktop/Client_Projects/cebs-parents/platforms/android/app/src/main/AndroidManifest.xml:48:5-68
MERGED from [com.google.firebase:firebase-analytics-impl:15.0.0] /Users/admin/.gradle/caches/transforms-2/files-2.1/ab7f798f79f7c904066b76927360d974/AndroidManifest.xml:25:5-68
MERGED from [com.google.firebase:firebase-analytics-impl:15.0.0] /Users/admin/.gradle/caches/transforms-2/files-2.1/ab7f798f79f7c904066b76927360d974/AndroidManifest.xml:25:5-68
MERGED from [com.google.firebase:firebase-iid:15.0.0] /Users/admin/.gradle/caches/transforms-2/files-2.1/3512fb7822baec9a1df5e7ac2ea315d5/AndroidManifest.xml:24:5-68
MERGED from [com.google.firebase:firebase-iid:15.0.0] /Users/admin/.gradle/caches/transforms-2/files-2.1/3512fb7822baec9a1df5e7ac2ea315d5/AndroidManifest.xml:24:5-68
	android:name
		ADDED from /Users/admin/Desktop/Client_Projects/cebs-parents/platforms/android/app/src/main/AndroidManifest.xml:48:22-65
uses-permission#android.permission.VIBRATE
ADDED from /Users/admin/Desktop/Client_Projects/cebs-parents/platforms/android/app/src/main/AndroidManifest.xml:49:5-66
	android:name
		ADDED from /Users/admin/Desktop/Client_Projects/cebs-parents/platforms/android/app/src/main/AndroidManifest.xml:49:22-63
meta-data#android.support.FILE_PROVIDER_PATHS
ADDED from /Users/admin/Desktop/Client_Projects/cebs-parents/platforms/android/app/src/main/AndroidManifest.xml:21:13-115
	android:resource
		ADDED from /Users/admin/Desktop/Client_Projects/cebs-parents/platforms/android/app/src/main/AndroidManifest.xml:21:75-112
	android:name
		ADDED from /Users/admin/Desktop/Client_Projects/cebs-parents/platforms/android/app/src/main/AndroidManifest.xml:21:24-74
meta-data#android.support.VERSION
ADDED from [com.android.support:appcompat-v7:26.1.0] /Users/admin/.gradle/caches/transforms-2/files-2.1/0df9e69580c360e5414a216d5acb0f8c/AndroidManifest.xml:26:9-28:38
MERGED from [com.android.support:animated-vector-drawable:26.1.0] /Users/admin/.gradle/caches/transforms-2/files-2.1/3dab731d6dc31d811fd3dc749ad50f06/AndroidManifest.xml:23:9-25:38
MERGED from [com.android.support:animated-vector-drawable:26.1.0] /Users/admin/.gradle/caches/transforms-2/files-2.1/3dab731d6dc31d811fd3dc749ad50f06/AndroidManifest.xml:23:9-25:38
MERGED from [com.android.support:support-vector-drawable:26.1.0] /Users/admin/.gradle/caches/transforms-2/files-2.1/92d95cfc59ddeacd8f9afe238cc947fc/AndroidManifest.xml:23:9-25:38
MERGED from [com.android.support:support-vector-drawable:26.1.0] /Users/admin/.gradle/caches/transforms-2/files-2.1/92d95cfc59ddeacd8f9afe238cc947fc/AndroidManifest.xml:23:9-25:38
	android:value
		ADDED from [com.android.support:appcompat-v7:26.1.0] /Users/admin/.gradle/caches/transforms-2/files-2.1/0df9e69580c360e5414a216d5acb0f8c/AndroidManifest.xml:28:13-35
	android:name
		ADDED from [com.android.support:appcompat-v7:26.1.0] /Users/admin/.gradle/caches/transforms-2/files-2.1/0df9e69580c360e5414a216d5acb0f8c/AndroidManifest.xml:27:13-51
service#com.google.firebase.messaging.FirebaseMessagingService
ADDED from [com.google.firebase:firebase-messaging:15.0.0] /Users/admin/.gradle/caches/transforms-2/files-2.1/04727b964903c6e29f42f1fae9dd0ffe/AndroidManifest.xml:28:9-34:19
	android:exported
		ADDED from [com.google.firebase:firebase-messaging:15.0.0] /Users/admin/.gradle/caches/transforms-2/files-2.1/04727b964903c6e29f42f1fae9dd0ffe/AndroidManifest.xml:30:13-36
	android:name
		ADDED from [com.google.firebase:firebase-messaging:15.0.0] /Users/admin/.gradle/caches/transforms-2/files-2.1/04727b964903c6e29f42f1fae9dd0ffe/AndroidManifest.xml:29:13-82
activity#com.google.android.gms.common.api.GoogleApiActivity
ADDED from [com.google.android.gms:play-services-base:15.0.1] /Users/admin/.gradle/caches/transforms-2/files-2.1/2ada9c38e958831e7e616ccd7cd35508/AndroidManifest.xml:23:9-26:75
	android:exported
		ADDED from [com.google.android.gms:play-services-base:15.0.1] /Users/admin/.gradle/caches/transforms-2/files-2.1/2ada9c38e958831e7e616ccd7cd35508/AndroidManifest.xml:25:13-37
	android:theme
		ADDED from [com.google.android.gms:play-services-base:15.0.1] /Users/admin/.gradle/caches/transforms-2/files-2.1/2ada9c38e958831e7e616ccd7cd35508/AndroidManifest.xml:26:13-72
	android:name
		ADDED from [com.google.android.gms:play-services-base:15.0.1] /Users/admin/.gradle/caches/transforms-2/files-2.1/2ada9c38e958831e7e616ccd7cd35508/AndroidManifest.xml:24:13-79
uses-permission#com.google.android.finsky.permission.BIND_GET_INSTALL_REFERRER_SERVICE
ADDED from [com.google.firebase:firebase-analytics-impl:15.0.0] /Users/admin/.gradle/caches/transforms-2/files-2.1/ab7f798f79f7c904066b76927360d974/AndroidManifest.xml:26:5-110
	android:name
		ADDED from [com.google.firebase:firebase-analytics-impl:15.0.0] /Users/admin/.gradle/caches/transforms-2/files-2.1/ab7f798f79f7c904066b76927360d974/AndroidManifest.xml:26:22-107
receiver#com.google.android.gms.measurement.AppMeasurementReceiver
ADDED from [com.google.firebase:firebase-analytics-impl:15.0.0] /Users/admin/.gradle/caches/transforms-2/files-2.1/ab7f798f79f7c904066b76927360d974/AndroidManifest.xml:29:9-33:20
	android:enabled
		ADDED from [com.google.firebase:firebase-analytics-impl:15.0.0] /Users/admin/.gradle/caches/transforms-2/files-2.1/ab7f798f79f7c904066b76927360d974/AndroidManifest.xml:31:13-35
	android:exported
		ADDED from [com.google.firebase:firebase-analytics-impl:15.0.0] /Users/admin/.gradle/caches/transforms-2/files-2.1/ab7f798f79f7c904066b76927360d974/AndroidManifest.xml:32:13-37
	android:name
		ADDED from [com.google.firebase:firebase-analytics-impl:15.0.0] /Users/admin/.gradle/caches/transforms-2/files-2.1/ab7f798f79f7c904066b76927360d974/AndroidManifest.xml:30:13-85
service#com.google.android.gms.measurement.AppMeasurementService
ADDED from [com.google.firebase:firebase-analytics-impl:15.0.0] /Users/admin/.gradle/caches/transforms-2/files-2.1/ab7f798f79f7c904066b76927360d974/AndroidManifest.xml:35:9-38:40
	android:enabled
		ADDED from [com.google.firebase:firebase-analytics-impl:15.0.0] /Users/admin/.gradle/caches/transforms-2/files-2.1/ab7f798f79f7c904066b76927360d974/AndroidManifest.xml:37:13-35
	android:exported
		ADDED from [com.google.firebase:firebase-analytics-impl:15.0.0] /Users/admin/.gradle/caches/transforms-2/files-2.1/ab7f798f79f7c904066b76927360d974/AndroidManifest.xml:38:13-37
	android:name
		ADDED from [com.google.firebase:firebase-analytics-impl:15.0.0] /Users/admin/.gradle/caches/transforms-2/files-2.1/ab7f798f79f7c904066b76927360d974/AndroidManifest.xml:36:13-84
uses-permission#com.google.android.c2dm.permission.RECEIVE
ADDED from [com.google.firebase:firebase-iid:15.0.0] /Users/admin/.gradle/caches/transforms-2/files-2.1/3512fb7822baec9a1df5e7ac2ea315d5/AndroidManifest.xml:26:5-82
	android:name
		ADDED from [com.google.firebase:firebase-iid:15.0.0] /Users/admin/.gradle/caches/transforms-2/files-2.1/3512fb7822baec9a1df5e7ac2ea315d5/AndroidManifest.xml:26:22-79
permission#${applicationId}.permission.C2D_MESSAGE
ADDED from [com.google.firebase:firebase-iid:15.0.0] /Users/admin/.gradle/caches/transforms-2/files-2.1/3512fb7822baec9a1df5e7ac2ea315d5/AndroidManifest.xml:28:5-30:47
	android:protectionLevel
		ADDED from [com.google.firebase:firebase-iid:15.0.0] /Users/admin/.gradle/caches/transforms-2/files-2.1/3512fb7822baec9a1df5e7ac2ea315d5/AndroidManifest.xml:30:9-44
	android:name
		ADDED from [com.google.firebase:firebase-iid:15.0.0] /Users/admin/.gradle/caches/transforms-2/files-2.1/3512fb7822baec9a1df5e7ac2ea315d5/AndroidManifest.xml:29:9-63
permission#io.cebsparents.ionic.permission.C2D_MESSAGE
ADDED from [com.google.firebase:firebase-iid:15.0.0] /Users/admin/.gradle/caches/transforms-2/files-2.1/3512fb7822baec9a1df5e7ac2ea315d5/AndroidManifest.xml:28:5-30:47
	android:protectionLevel
		ADDED from [com.google.firebase:firebase-iid:15.0.0] /Users/admin/.gradle/caches/transforms-2/files-2.1/3512fb7822baec9a1df5e7ac2ea315d5/AndroidManifest.xml:30:9-44
	android:name
		ADDED from [com.google.firebase:firebase-iid:15.0.0] /Users/admin/.gradle/caches/transforms-2/files-2.1/3512fb7822baec9a1df5e7ac2ea315d5/AndroidManifest.xml:29:9-63
uses-permission#${applicationId}.permission.C2D_MESSAGE
ADDED from [com.google.firebase:firebase-iid:15.0.0] /Users/admin/.gradle/caches/transforms-2/files-2.1/3512fb7822baec9a1df5e7ac2ea315d5/AndroidManifest.xml:32:5-79
	android:name
		ADDED from [com.google.firebase:firebase-iid:15.0.0] /Users/admin/.gradle/caches/transforms-2/files-2.1/3512fb7822baec9a1df5e7ac2ea315d5/AndroidManifest.xml:32:22-76
uses-permission#io.cebsparents.ionic.permission.C2D_MESSAGE
ADDED from [com.google.firebase:firebase-iid:15.0.0] /Users/admin/.gradle/caches/transforms-2/files-2.1/3512fb7822baec9a1df5e7ac2ea315d5/AndroidManifest.xml:32:5-79
	android:name
		ADDED from [com.google.firebase:firebase-iid:15.0.0] /Users/admin/.gradle/caches/transforms-2/files-2.1/3512fb7822baec9a1df5e7ac2ea315d5/AndroidManifest.xml:32:22-76
receiver#com.google.firebase.iid.FirebaseInstanceIdReceiver
ADDED from [com.google.firebase:firebase-iid:15.0.0] /Users/admin/.gradle/caches/transforms-2/files-2.1/3512fb7822baec9a1df5e7ac2ea315d5/AndroidManifest.xml:35:9-44:20
	android:exported
		ADDED from [com.google.firebase:firebase-iid:15.0.0] /Users/admin/.gradle/caches/transforms-2/files-2.1/3512fb7822baec9a1df5e7ac2ea315d5/AndroidManifest.xml:37:13-36
	android:permission
		ADDED from [com.google.firebase:firebase-iid:15.0.0] /Users/admin/.gradle/caches/transforms-2/files-2.1/3512fb7822baec9a1df5e7ac2ea315d5/AndroidManifest.xml:38:13-73
	android:name
		ADDED from [com.google.firebase:firebase-iid:15.0.0] /Users/admin/.gradle/caches/transforms-2/files-2.1/3512fb7822baec9a1df5e7ac2ea315d5/AndroidManifest.xml:36:13-78
intent-filter#action:name:com.google.android.c2dm.intent.RECEIVE+category:name:${applicationId}
ADDED from [com.google.firebase:firebase-iid:15.0.0] /Users/admin/.gradle/caches/transforms-2/files-2.1/3512fb7822baec9a1df5e7ac2ea315d5/AndroidManifest.xml:39:13-43:29
intent-filter#action:name:com.google.android.c2dm.intent.RECEIVE+category:name:io.cebsparents.ionic
ADDED from [com.google.firebase:firebase-iid:15.0.0] /Users/admin/.gradle/caches/transforms-2/files-2.1/3512fb7822baec9a1df5e7ac2ea315d5/AndroidManifest.xml:39:13-43:29
action#com.google.android.c2dm.intent.RECEIVE
ADDED from [com.google.firebase:firebase-iid:15.0.0] /Users/admin/.gradle/caches/transforms-2/files-2.1/3512fb7822baec9a1df5e7ac2ea315d5/AndroidManifest.xml:40:17-81
	android:name
		ADDED from [com.google.firebase:firebase-iid:15.0.0] /Users/admin/.gradle/caches/transforms-2/files-2.1/3512fb7822baec9a1df5e7ac2ea315d5/AndroidManifest.xml:40:25-78
category#${applicationId}
ADDED from [com.google.firebase:firebase-iid:15.0.0] /Users/admin/.gradle/caches/transforms-2/files-2.1/3512fb7822baec9a1df5e7ac2ea315d5/AndroidManifest.xml:42:17-61
	android:name
		ADDED from [com.google.firebase:firebase-iid:15.0.0] /Users/admin/.gradle/caches/transforms-2/files-2.1/3512fb7822baec9a1df5e7ac2ea315d5/AndroidManifest.xml:42:27-58
category#io.cebsparents.ionic
ADDED from [com.google.firebase:firebase-iid:15.0.0] /Users/admin/.gradle/caches/transforms-2/files-2.1/3512fb7822baec9a1df5e7ac2ea315d5/AndroidManifest.xml:42:17-61
	android:name
		ADDED from [com.google.firebase:firebase-iid:15.0.0] /Users/admin/.gradle/caches/transforms-2/files-2.1/3512fb7822baec9a1df5e7ac2ea315d5/AndroidManifest.xml:42:27-58
service#com.google.firebase.iid.FirebaseInstanceIdService
ADDED from [com.google.firebase:firebase-iid:15.0.0] /Users/admin/.gradle/caches/transforms-2/files-2.1/3512fb7822baec9a1df5e7ac2ea315d5/AndroidManifest.xml:50:9-56:19
	android:exported
		ADDED from [com.google.firebase:firebase-iid:15.0.0] /Users/admin/.gradle/caches/transforms-2/files-2.1/3512fb7822baec9a1df5e7ac2ea315d5/AndroidManifest.xml:52:13-36
	android:name
		ADDED from [com.google.firebase:firebase-iid:15.0.0] /Users/admin/.gradle/caches/transforms-2/files-2.1/3512fb7822baec9a1df5e7ac2ea315d5/AndroidManifest.xml:51:13-77
provider#com.google.firebase.provider.FirebaseInitProvider
ADDED from [com.google.firebase:firebase-common:15.0.1] /Users/admin/.gradle/caches/transforms-2/files-2.1/e782327e08255642ea5222f01a3fa968/AndroidManifest.xml:8:9-12:39
	android:authorities
		ADDED from [com.google.firebase:firebase-common:15.0.1] /Users/admin/.gradle/caches/transforms-2/files-2.1/e782327e08255642ea5222f01a3fa968/AndroidManifest.xml:10:13-72
	android:exported
		ADDED from [com.google.firebase:firebase-common:15.0.1] /Users/admin/.gradle/caches/transforms-2/files-2.1/e782327e08255642ea5222f01a3fa968/AndroidManifest.xml:11:13-37
	android:initOrder
		ADDED from [com.google.firebase:firebase-common:15.0.1] /Users/admin/.gradle/caches/transforms-2/files-2.1/e782327e08255642ea5222f01a3fa968/AndroidManifest.xml:12:13-36
	android:name
		ADDED from [com.google.firebase:firebase-common:15.0.1] /Users/admin/.gradle/caches/transforms-2/files-2.1/e782327e08255642ea5222f01a3fa968/AndroidManifest.xml:9:13-77
uses-permission#com.sec.android.provider.badge.permission.READ
ADDED from [me.leolin:ShortcutBadger:1.1.17] /Users/admin/.gradle/caches/transforms-2/files-2.1/026bb1236edc88a8e77c89f185ddb298/AndroidManifest.xml:19:5-86
	android:name
		ADDED from [me.leolin:ShortcutBadger:1.1.17] /Users/admin/.gradle/caches/transforms-2/files-2.1/026bb1236edc88a8e77c89f185ddb298/AndroidManifest.xml:19:22-83
uses-permission#com.sec.android.provider.badge.permission.WRITE
ADDED from [me.leolin:ShortcutBadger:1.1.17] /Users/admin/.gradle/caches/transforms-2/files-2.1/026bb1236edc88a8e77c89f185ddb298/AndroidManifest.xml:20:5-87
	android:name
		ADDED from [me.leolin:ShortcutBadger:1.1.17] /Users/admin/.gradle/caches/transforms-2/files-2.1/026bb1236edc88a8e77c89f185ddb298/AndroidManifest.xml:20:22-84
uses-permission#com.htc.launcher.permission.READ_SETTINGS
ADDED from [me.leolin:ShortcutBadger:1.1.17] /Users/admin/.gradle/caches/transforms-2/files-2.1/026bb1236edc88a8e77c89f185ddb298/AndroidManifest.xml:23:5-81
	android:name
		ADDED from [me.leolin:ShortcutBadger:1.1.17] /Users/admin/.gradle/caches/transforms-2/files-2.1/026bb1236edc88a8e77c89f185ddb298/AndroidManifest.xml:23:22-78
uses-permission#com.htc.launcher.permission.UPDATE_SHORTCUT
ADDED from [me.leolin:ShortcutBadger:1.1.17] /Users/admin/.gradle/caches/transforms-2/files-2.1/026bb1236edc88a8e77c89f185ddb298/AndroidManifest.xml:24:5-83
	android:name
		ADDED from [me.leolin:ShortcutBadger:1.1.17] /Users/admin/.gradle/caches/transforms-2/files-2.1/026bb1236edc88a8e77c89f185ddb298/AndroidManifest.xml:24:22-80
uses-permission#com.sonyericsson.home.permission.BROADCAST_BADGE
ADDED from [me.leolin:ShortcutBadger:1.1.17] /Users/admin/.gradle/caches/transforms-2/files-2.1/026bb1236edc88a8e77c89f185ddb298/AndroidManifest.xml:27:5-88
	android:name
		ADDED from [me.leolin:ShortcutBadger:1.1.17] /Users/admin/.gradle/caches/transforms-2/files-2.1/026bb1236edc88a8e77c89f185ddb298/AndroidManifest.xml:27:22-85
uses-permission#com.sonymobile.home.permission.PROVIDER_INSERT_BADGE
ADDED from [me.leolin:ShortcutBadger:1.1.17] /Users/admin/.gradle/caches/transforms-2/files-2.1/026bb1236edc88a8e77c89f185ddb298/AndroidManifest.xml:28:5-92
	android:name
		ADDED from [me.leolin:ShortcutBadger:1.1.17] /Users/admin/.gradle/caches/transforms-2/files-2.1/026bb1236edc88a8e77c89f185ddb298/AndroidManifest.xml:28:22-89
uses-permission#com.anddoes.launcher.permission.UPDATE_COUNT
ADDED from [me.leolin:ShortcutBadger:1.1.17] /Users/admin/.gradle/caches/transforms-2/files-2.1/026bb1236edc88a8e77c89f185ddb298/AndroidManifest.xml:31:5-84
	android:name
		ADDED from [me.leolin:ShortcutBadger:1.1.17] /Users/admin/.gradle/caches/transforms-2/files-2.1/026bb1236edc88a8e77c89f185ddb298/AndroidManifest.xml:31:22-81
uses-permission#com.majeur.launcher.permission.UPDATE_BADGE
ADDED from [me.leolin:ShortcutBadger:1.1.17] /Users/admin/.gradle/caches/transforms-2/files-2.1/026bb1236edc88a8e77c89f185ddb298/AndroidManifest.xml:34:5-83
	android:name
		ADDED from [me.leolin:ShortcutBadger:1.1.17] /Users/admin/.gradle/caches/transforms-2/files-2.1/026bb1236edc88a8e77c89f185ddb298/AndroidManifest.xml:34:22-80
uses-permission#com.huawei.android.launcher.permission.CHANGE_BADGE
ADDED from [me.leolin:ShortcutBadger:1.1.17] /Users/admin/.gradle/caches/transforms-2/files-2.1/026bb1236edc88a8e77c89f185ddb298/AndroidManifest.xml:37:5-91
	android:name
		ADDED from [me.leolin:ShortcutBadger:1.1.17] /Users/admin/.gradle/caches/transforms-2/files-2.1/026bb1236edc88a8e77c89f185ddb298/AndroidManifest.xml:37:22-88
uses-permission#com.huawei.android.launcher.permission.READ_SETTINGS
ADDED from [me.leolin:ShortcutBadger:1.1.17] /Users/admin/.gradle/caches/transforms-2/files-2.1/026bb1236edc88a8e77c89f185ddb298/AndroidManifest.xml:38:5-92
	android:name
		ADDED from [me.leolin:ShortcutBadger:1.1.17] /Users/admin/.gradle/caches/transforms-2/files-2.1/026bb1236edc88a8e77c89f185ddb298/AndroidManifest.xml:38:22-89
uses-permission#com.huawei.android.launcher.permission.WRITE_SETTINGS
ADDED from [me.leolin:ShortcutBadger:1.1.17] /Users/admin/.gradle/caches/transforms-2/files-2.1/026bb1236edc88a8e77c89f185ddb298/AndroidManifest.xml:39:5-93
	android:name
		ADDED from [me.leolin:ShortcutBadger:1.1.17] /Users/admin/.gradle/caches/transforms-2/files-2.1/026bb1236edc88a8e77c89f185ddb298/AndroidManifest.xml:39:22-90
uses-permission#android.permission.READ_APP_BADGE
ADDED from [me.leolin:ShortcutBadger:1.1.17] /Users/admin/.gradle/caches/transforms-2/files-2.1/026bb1236edc88a8e77c89f185ddb298/AndroidManifest.xml:42:5-73
	android:name
		ADDED from [me.leolin:ShortcutBadger:1.1.17] /Users/admin/.gradle/caches/transforms-2/files-2.1/026bb1236edc88a8e77c89f185ddb298/AndroidManifest.xml:42:22-70
uses-permission#com.oppo.launcher.permission.READ_SETTINGS
ADDED from [me.leolin:ShortcutBadger:1.1.17] /Users/admin/.gradle/caches/transforms-2/files-2.1/026bb1236edc88a8e77c89f185ddb298/AndroidManifest.xml:45:5-82
	android:name
		ADDED from [me.leolin:ShortcutBadger:1.1.17] /Users/admin/.gradle/caches/transforms-2/files-2.1/026bb1236edc88a8e77c89f185ddb298/AndroidManifest.xml:45:22-79
uses-permission#com.oppo.launcher.permission.WRITE_SETTINGS
ADDED from [me.leolin:ShortcutBadger:1.1.17] /Users/admin/.gradle/caches/transforms-2/files-2.1/026bb1236edc88a8e77c89f185ddb298/AndroidManifest.xml:46:5-83
	android:name
		ADDED from [me.leolin:ShortcutBadger:1.1.17] /Users/admin/.gradle/caches/transforms-2/files-2.1/026bb1236edc88a8e77c89f185ddb298/AndroidManifest.xml:46:22-80
uses-permission#me.everything.badger.permission.BADGE_COUNT_READ
ADDED from [me.leolin:ShortcutBadger:1.1.17] /Users/admin/.gradle/caches/transforms-2/files-2.1/026bb1236edc88a8e77c89f185ddb298/AndroidManifest.xml:49:5-88
	android:name
		ADDED from [me.leolin:ShortcutBadger:1.1.17] /Users/admin/.gradle/caches/transforms-2/files-2.1/026bb1236edc88a8e77c89f185ddb298/AndroidManifest.xml:49:22-85
uses-permission#me.everything.badger.permission.BADGE_COUNT_WRITE
ADDED from [me.leolin:ShortcutBadger:1.1.17] /Users/admin/.gradle/caches/transforms-2/files-2.1/026bb1236edc88a8e77c89f185ddb298/AndroidManifest.xml:50:5-89
	android:name
		ADDED from [me.leolin:ShortcutBadger:1.1.17] /Users/admin/.gradle/caches/transforms-2/files-2.1/026bb1236edc88a8e77c89f185ddb298/AndroidManifest.xml:50:22-86
